INDEX VERSION 1.134+C:\TalentSprint\FSD56\Module 3\SpringBoot\Workspace 1\.metadata\.plugins\org.eclipse.jdt.core
3950486211.index
1865797976.index
2138822501.index
1493586600.index
1670273934.index
1603773057.index
52940999.index
3202696829.index
3147892431.index
1567661649.index
1271121459.index
2573410957.index
4268464.index
3819305782.index
333426088.index
3920494638.index
2700136541.index
1945016201.index
2910002727.index
2176334383.index
10354713.index
1451387221.index
3578562635.index
2572297474.index
126290240.index
3706319569.index
393987895.index
4097480923.index
1178775790.index
2342643791.index
1782687574.index
2912276599.index
1452565328.index
3863818115.index
595248302.index
506189906.index
4099289305.index
2927345940.index
3127541055.index
1991605697.index
1640231603.index
2219377236.index
1689380898.index
3435648363.index
1879098941.index
924990246.index
854638203.index
4234692782.index
1976671239.index
3355069361.index
968557227.index
2670534156.index
398666449.index
2467067559.index
4216861349.index
3443928410.index
958640454.index
2837098119.index
3086165577.index
1891766981.index
1856112485.index
20063728.index
3413270776.index
498078151.index
3905098673.index
1930803413.index
